2021-01-14T21:29:18.0976995+01:00  [INF] Application started. Press Ctrl+C to shut down. (dcaefe54)
2021-01-14T21:29:18.1128101+01:00  [INF] Hosting environment: "Development" (c3307c92)
2021-01-14T21:29:18.1159140+01:00  [INF] Content root path: "F:\Vlatko\BackEnd\SkillUpRepo\SkillUpRepo" (b5d60022)
2021-01-14T21:30:16.1390123+01:00 80000006-0005-fc00-b63f-84710c7967bb [WRN] Failed to determine the https port for redirect. (ca76cc21)
